{
	"nodes":[
{"name":"0","group":1996},
{"name":"1","group":1996},
{"name":"2","group":1996},
{"name":"3","group":1996},
{"name":"4","group":1996},
{"name":"5","group":1996},
{"name":"6","group":1998},
{"name":"7","group":2000},
{"name":"8","group":2000},
{"name":"9","group":2000},
{"name":"10","group":2000},
{"name":"11","group":2000},
{"name":"12","group":2000},
{"name":"13","group":2000},
{"name":"14","group":2000},
{"name":"15","group":2000},
{"name":"16","group":2000},
{"name":"17","group":2000},
{"name":"18","group":2001},
{"name":"19","group":2002},
{"name":"20","group":2002},
{"name":"21","group":2002},
{"name":"22","group":2002},
{"name":"23","group":2003},
{"name":"24","group":2003},
{"name":"25","group":2003},
{"name":"26","group":2003},
{"name":"27","group":2003},
{"name":"28","group":2003},
{"name":"29","group":2003},
{"name":"30","group":2003},
{"name":"31","group":2003},
{"name":"32","group":2003},
{"name":"33","group":2003},
{"name":"34","group":2003},
{"name":"35","group":2003},
{"name":"36","group":2003},
{"name":"37","group":2003},
{"name":"38","group":2003},
{"name":"39","group":2003},
{"name":"40","group":2003},
{"name":"41","group":2003},
{"name":"42","group":2003},
{"name":"43","group":2003},
{"name":"44","group":2003},
{"name":"45","group":2003},
{"name":"46","group":2004},
{"name":"47","group":2004},
{"name":"48","group":2004},
{"name":"49","group":2004},
{"name":"50","group":2004},
{"name":"51","group":2004},
{"name":"52","group":2004},
{"name":"53","group":2004},
{"name":"54","group":2004},
{"name":"55","group":2004},
{"name":"56","group":2004},
{"name":"57","group":2004},
{"name":"58","group":2004},
{"name":"59","group":2004},
{"name":"60","group":2004},
{"name":"61","group":2004},
{"name":"62","group":2004},
{"name":"63","group":2004},
{"name":"64","group":2004},
{"name":"65","group":2004},
{"name":"66","group":2005},
{"name":"67","group":2005},
{"name":"68","group":2005},
{"name":"69","group":2005},
{"name":"70","group":2005},
{"name":"71","group":2005},
{"name":"72","group":2005},
{"name":"73","group":2005},
{"name":"74","group":2005},
{"name":"75","group":2005},
{"name":"76","group":2005},
{"name":"77","group":2005},
{"name":"78","group":2005},
{"name":"79","group":2005},
{"name":"80","group":2005},
{"name":"81","group":2005},
{"name":"82","group":2005},
{"name":"83","group":2005},
{"name":"84","group":2005},
{"name":"85","group":2005},
{"name":"86","group":2005},
{"name":"87","group":2005},
{"name":"88","group":2006},
{"name":"89","group":2006},
{"name":"90","group":2006},
{"name":"91","group":2006},
{"name":"92","group":2006},
{"name":"93","group":2006},
{"name":"94","group":2006},
{"name":"95","group":2006},
{"name":"96","group":2006},
{"name":"97","group":2006},
{"name":"98","group":2006},
{"name":"99","group":2006},
{"name":"100","group":2006},
{"name":"101","group":2006},
{"name":"102","group":2006},
{"name":"103","group":2006},
{"name":"104","group":2006},
{"name":"105","group":2007},
{"name":"106","group":2007},
{"name":"107","group":2007},
{"name":"108","group":2007},
{"name":"109","group":2007},
{"name":"110","group":2007},
{"name":"111","group":2007},
{"name":"112","group":2007},
{"name":"113","group":2007},
{"name":"114","group":2007},
{"name":"115","group":2007},
{"name":"116","group":2007},
{"name":"117","group":2007},
{"name":"118","group":2007},
{"name":"119","group":2007},
{"name":"120","group":2007},
{"name":"121","group":2007},
{"name":"122","group":2007},
{"name":"123","group":2008},
{"name":"124","group":2008},
{"name":"125","group":2008},
{"name":"126","group":2008},
{"name":"127","group":2008},
{"name":"128","group":2008},
{"name":"129","group":2008},
{"name":"130","group":2008},
{"name":"131","group":2008},
{"name":"132","group":2008},
{"name":"133","group":2008},
{"name":"134","group":2008},
{"name":"135","group":2008},
{"name":"136","group":2008},
{"name":"137","group":2008},
{"name":"138","group":2008},
{"name":"139","group":2008},
{"name":"140","group":2008},
{"name":"141","group":2008},
{"name":"142","group":2008},
{"name":"143","group":2008},
{"name":"144","group":2008},
{"name":"145","group":2008},
{"name":"146","group":2009},
{"name":"147","group":2009},
{"name":"148","group":2009},
{"name":"149","group":2009},
{"name":"150","group":2009},
{"name":"151","group":2009},
{"name":"152","group":2009},
{"name":"153","group":2009},
{"name":"154","group":2009},
{"name":"155","group":2009},
{"name":"156","group":2009},
{"name":"157","group":2009},
{"name":"158","group":2009},
{"name":"159","group":2009},
{"name":"160","group":2009},
{"name":"161","group":2009},
{"name":"162","group":2009},
{"name":"163","group":2009},
{"name":"164","group":2009},
{"name":"165","group":2009},
{"name":"166","group":2009},
{"name":"167","group":2009},
{"name":"168","group":2009},
{"name":"169","group":2009},
{"name":"170","group":2009},
{"name":"171","group":2009},
{"name":"172","group":2009},
{"name":"173","group":2009},
{"name":"174","group":2009},
{"name":"175","group":2009},
{"name":"176","group":2009},
{"name":"177","group":2009},
{"name":"178","group":2009},
{"name":"179","group":2009},
{"name":"180","group":2009},
{"name":"181","group":2009},
{"name":"182","group":2010},
{"name":"183","group":2010},
{"name":"184","group":2010},
{"name":"185","group":2010},
{"name":"186","group":2010},
{"name":"187","group":2010},
{"name":"188","group":2010},
{"name":"189","group":2010},
{"name":"190","group":2010},
{"name":"191","group":2010},
{"name":"192","group":2010},
{"name":"193","group":2010},
{"name":"194","group":2010},
{"name":"195","group":2010},
{"name":"196","group":2010},
{"name":"197","group":2010},
{"name":"198","group":2010},
{"name":"199","group":2010},
{"name":"200","group":2010},
{"name":"201","group":2010},
{"name":"202","group":2010},
{"name":"203","group":2010},
{"name":"204","group":2010},
{"name":"205","group":2010},
{"name":"206","group":2010},
{"name":"207","group":2010},
{"name":"208","group":2010},
{"name":"209","group":2010},
{"name":"210","group":2010},
{"name":"211","group":2014},
{"name":"212","group":2014},
{"name":"213","group":2014},
{"name":"214","group":2014},
{"name":"215","group":2014},
{"name":"216","group":2014},
{"name":"217","group":2014},
{"name":"218","group":2014},
{"name":"219","group":2014},
{"name":"220","group":2014},
{"name":"221","group":2014},
{"name":"222","group":2014},
{"name":"223","group":2014},
{"name":"224","group":2014},
{"name":"225","group":2014},
{"name":"226","group":2014},
{"name":"227","group":2014},
{"name":"228","group":2014},
{"name":"229","group":2014},
{"name":"230","group":2014},
{"name":"231","group":2014},
{"name":"232","group":2014},
{"name":"233","group":2014},
{"name":"234","group":2014},
{"name":"235","group":2014},
{"name":"236","group":2014},
{"name":"237","group":2014},
{"name":"238","group":2014},
{"name":"239","group":2014},
{"name":"240","group":2014},
{"name":"241","group":2014},
{"name":"242","group":2014},
{"name":"243","group":2014},
{"name":"244","group":2013},
{"name":"245","group":2013},
{"name":"246","group":2013},
{"name":"247","group":2013},
{"name":"248","group":2013},
{"name":"249","group":2013},
{"name":"250","group":2013},
{"name":"251","group":2013},
{"name":"252","group":2013},
{"name":"253","group":2013},
{"name":"254","group":2013},
{"name":"255","group":2013},
{"name":"256","group":2013},
{"name":"257","group":2013},
{"name":"258","group":2013},
{"name":"259","group":2013},
{"name":"260","group":2013},
{"name":"261","group":2013},
{"name":"262","group":2013},
{"name":"263","group":2013},
{"name":"264","group":2013},
{"name":"265","group":2013},
{"name":"266","group":2013},
{"name":"267","group":2013},
{"name":"268","group":2013},
{"name":"269","group":2013},
{"name":"270","group":2013},
{"name":"271","group":2013},
{"name":"272","group":2013},
{"name":"273","group":2013},
{"name":"274","group":2013},
{"name":"275","group":2013},
{"name":"276","group":2013},
{"name":"277","group":2013},
{"name":"278","group":2013},
{"name":"279","group":2013},
{"name":"280","group":2013},
{"name":"281","group":2012},
{"name":"282","group":2012},
{"name":"283","group":2012},
{"name":"284","group":2012},
{"name":"285","group":2012},
{"name":"286","group":2012},
{"name":"287","group":2012},
{"name":"288","group":2012},
{"name":"289","group":2012},
{"name":"290","group":2012},
{"name":"291","group":2012},
{"name":"292","group":2012},
{"name":"293","group":2012},
{"name":"294","group":2012},
{"name":"295","group":2012},
{"name":"296","group":2012},
{"name":"297","group":2012},
{"name":"298","group":2012},
{"name":"299","group":2012},
{"name":"300","group":2012},
{"name":"301","group":2012},
{"name":"302","group":2012},
{"name":"303","group":2012},
{"name":"304","group":2012},
{"name":"305","group":2012},
{"name":"306","group":2012},
{"name":"307","group":2012},
{"name":"308","group":2012},
{"name":"309","group":2012},
{"name":"310","group":2012},
{"name":"311","group":2012},
{"name":"312","group":2012},
{"name":"313","group":2012},
{"name":"314","group":2011},
{"name":"315","group":2011},
{"name":"316","group":2011},
{"name":"317","group":2011},
{"name":"318","group":2011},
{"name":"319","group":2011},
{"name":"320","group":2011},
{"name":"321","group":2011},
{"name":"322","group":2011},
{"name":"323","group":2011},
{"name":"324","group":2011},
{"name":"325","group":2011},
{"name":"326","group":2011},
{"name":"327","group":2011},
{"name":"328","group":2011},
{"name":"329","group":2011},
{"name":"330","group":2011},
{"name":"331","group":2011},
{"name":"332","group":2011},
{"name":"333","group":2011},
{"name":"334","group":2011},
{"name":"335","group":2011},
{"name":"336","group":2011},
{"name":"337","group":2011},
{"name":"338","group":2011},
{"name":"339","group":2011},
{"name":"340","group":2011},
{"name":"341","group":2011},
{"name":"342","group":2011},
{"name":"343","group":2011},
{"name":"344","group":2011},
{"name":"345","group":2011},
{"name":"346","group":2011},
{"name":"347","group":2011},
{"name":"348","group":2011}
	],
"links":[
	]
}